EESchema Schematic File Version 4
EELAYER 29 0
EELAYER END
$Descr A4 11693 8268
encoding utf-8
Sheet 1 1
Title ""
Date ""
Rev ""
Comp ""
Comment1 ""
Comment2 ""
Comment3 ""
Comment4 ""
$EndDescr
$Comp
L Device:R_Small_US R3
U 1 1 60B94825
P 7100 4100
F 0 "R3" H 7168 4146 50  0000 L CNN
F 1 "1.2" H 7168 4055 50  0000 L CNN
F 2 "Resistor_THT:R_Axial_DIN0204_L3.6mm_D1.6mm_P7.62mm_Horizontal" H 7100 4100 50  0001 C CNN
F 3 "~" H 7100 4100 50  0001 C CNN
	1    7100 4100
	1    0    0    -1  
$EndComp
$Comp
L Device:Q_NPN_BCE Q1
U 1 1 60B9940B
P 7000 3300
F 0 "Q1" H 7191 3346 50  0000 L CNN
F 1 "NPN" H 7191 3255 50  0000 L CNN
F 2 "Package_TO_SOT_THT:TO-92" H 7200 3400 50  0001 C CNN
F 3 "~" H 7000 3300 50  0001 C CNN
	1    7000 3300
	1    0    0    -1  
$EndComp
$Comp
L Simulation_SPICE:DIODE D1
U 1 1 60B9A22B
P 6100 4050
F 0 "D1" V 6146 3970 50  0000 R CNN
F 1 "DIODE" V 6055 3970 50  0000 R CNN
F 2 "Diode_SMD:D_01005_0402Metric" H 6100 4050 50  0001 C CNN
F 3 "~" H 6100 4050 50  0001 C CNN
F 4 "Y" H 6100 4050 50  0001 L CNN "Spice_Netlist_Enabled"
F 5 "V" H 6100 4050 50  0001 L CNN "Spice_Primitive"
	1    6100 4050
	0    -1   -1   0   
$EndComp
$Comp
L pspice:CAP C2
U 1 1 60B9A79B
P 8300 2900
F 0 "C2" H 8478 2946 50  0000 L CNN
F 1 "470u" H 8478 2855 50  0000 L CNN
F 2 "Capacitor_SMD:C_Trimmer_Murata_TZB4-B" H 8300 2900 50  0001 C CNN
F 3 "~" H 8300 2900 50  0001 C CNN
	1    8300 2900
	1    0    0    -1  
$EndComp
$Comp
L pspice:CAP C1
U 1 1 60B9B529
P 7800 4050
F 0 "C1" H 7978 4096 50  0000 L CNN
F 1 "100n" H 7978 4005 50  0000 L CNN
F 2 "Capacitor_SMD:C_2010_5025Metric_Pad1.52x2.65mm_HandSolder" H 7800 4050 50  0001 C CNN
F 3 "~" H 7800 4050 50  0001 C CNN
	1    7800 4050
	1    0    0    -1  
$EndComp
$Comp
L power:+36V #PWR0101
U 1 1 60B9C241
P 4000 2200
F 0 "#PWR0101" H 4000 2050 50  0001 C CNN
F 1 "+36V" H 4015 2373 50  0000 C CNN
F 2 "" H 4000 2200 50  0001 C CNN
F 3 "" H 4000 2200 50  0001 C CNN
	1    4000 2200
	1    0    0    -1  
$EndComp
Wire Wire Line
	8300 4450 8300 3150
Wire Wire Line
	8300 3150 8300 2650
Connection ~ 8300 3150
Wire Wire Line
	4000 2200 4500 2200
$Comp
L Device:R_POT_US R1
U 1 1 60B9561D
P 4500 3100
F 0 "R1" H 4432 3146 50  0000 R CNN
F 1 "10k" H 4432 3055 50  0000 R CNN
F 2 "Potentiometer_THT:Potentiometer_ACP_CA9-H3,8_Horizontal" H 4500 3100 50  0001 C CNN
F 3 "~" H 4500 3100 50  0001 C CNN
	1    4500 3100
	1    0    0    -1  
$EndComp
Wire Wire Line
	4500 4450 5300 4450
Wire Wire Line
	4500 3250 4500 4450
Wire Wire Line
	5100 3100 4650 3100
Wire Wire Line
	4500 2200 4500 2950
Wire Wire Line
	8300 2650 8300 2200
Wire Wire Line
	8300 2200 7100 2200
Connection ~ 8300 2650
Connection ~ 4500 2200
Wire Wire Line
	7100 3100 7100 2200
Connection ~ 7100 2200
Wire Wire Line
	7100 3500 7100 3650
Wire Wire Line
	7100 4200 7100 4450
Connection ~ 7100 4450
Wire Wire Line
	7100 4450 7800 4450
Wire Wire Line
	6100 4200 6100 4450
Connection ~ 6100 4450
Wire Wire Line
	6100 4450 6700 4450
Wire Wire Line
	6100 3900 6100 3650
Connection ~ 7100 3650
Wire Wire Line
	7100 3650 7100 4000
Wire Wire Line
	7100 3650 7800 3650
Wire Wire Line
	7800 3650 7800 3800
Wire Wire Line
	7800 4300 7800 4450
Connection ~ 7800 4450
Wire Wire Line
	7800 4450 8300 4450
Wire Wire Line
	5300 3500 5300 4450
Connection ~ 5300 4450
Wire Wire Line
	5300 2900 5300 2200
Connection ~ 5300 2200
Wire Wire Line
	5300 2200 4500 2200
Wire Wire Line
	6100 3650 7100 3650
Text Notes 7450 7500 0    50   ~ 0
AMPLIFIER CIRCUIT\n
Text Notes 8150 7650 0    50   ~ 0
01/06/2021\n
$Comp
L power:GND #PWR0102
U 1 1 60BADD00
P 6700 4650
F 0 "#PWR0102" H 6700 4400 50  0001 C CNN
F 1 "GND" H 6705 4477 50  0000 C CNN
F 2 "" H 6700 4650 50  0001 C CNN
F 3 "" H 6700 4650 50  0001 C CNN
	1    6700 4650
	1    0    0    -1  
$EndComp
Wire Wire Line
	5300 2200 7100 2200
Wire Wire Line
	5300 4450 6100 4450
Wire Wire Line
	5100 3300 5100 3650
Wire Wire Line
	5100 3650 6100 3650
Connection ~ 6100 3650
Wire Wire Line
	6800 3200 6800 3300
Wire Wire Line
	5700 3200 6800 3200
Wire Wire Line
	6700 4650 6700 4450
Connection ~ 6700 4450
Wire Wire Line
	6700 4450 7100 4450
$Comp
L Amplifier_Operational:LM741 U1
U 1 1 60B926B0
P 5400 3200
F 0 "U1" H 5744 3246 50  0000 L CNN
F 1 "LM741" H 5744 3155 50  0000 L CNN
F 2 "Package_TO_SOT_SMD:SC-59_Handsoldering" H 5450 3250 50  0001 C CNN
F 3 "http://www.ti.com/lit/ds/symlink/lm741.pdf" H 5550 3350 50  0001 C CNN
	1    5400 3200
	1    0    0    -1  
$EndComp
NoConn ~ 5500 3500
NoConn ~ 5400 3500
Wire Wire Line
	7800 3650 8800 3650
Connection ~ 7800 3650
Text GLabel 8800 3650 2    50   Input ~ 0
Motor
$EndSCHEMATC
